{
    "categories": [{
            "_id": "595cc263bfb8a76b1387f824",
            "name":"Copii și bebeluși",
            "link":"copii-si-bebelusi"
        }, {
            "_id": "595cc271bfb8a76b1387f825",
            "name":"Alimentare",
            "link":"alimentare"
        }, {
            "_id": "595cc27cbfb8a76b1387f826",
            "name":"Articole sportive",
            "link":"articole-sportive"
        }, {
            "_id": "595cc290bfb8a76b1387f827",
            "name":"Electronice",
            "link":"electronice"
        }, {
            "_id": "595cc299bfb8a76b1387f828",
            "name":"Cosmetice",
            "link":"cosmetice"
        },{
            "_id": "595cc2a2bfb8a76b1387f829",
            "name":"Auto",
            "link":"auto"
        }
    ],
    "offers": [{
		"cat_uuid": "595cc263bfb8a76b1387f824",
        "product": "Scutece Pampers Premium Care",
        "description":"XXL Box, marimea 3, 6 - 10 kg",
		"quantity":50,
        "photo_url":"https://s12emagst.akamaized.net/products/21176/21175380/images/res_4fc022a15bf43543a6f3a982d9395ab2_200x200_9sm3.jpg",
        "end":"2020-12-10 10:00:00.000Z",
        "price": 100,
        "user_uuid":"72e43e4f-df19-4efb-bc56-36fe31ed1a94"
    }, {
		"cat_uuid": "595cc263bfb8a76b1387f824",
        "product": "Formula de lapte praf Kinder Organic",
        "description":"Topfer, 500 g, de la 1 an",
		"quantity":250,
        "photo_url":"https://s12emagst.akamaized.net/products/2029/2028585/images/res_892c67ed1f467d80549b7b900b491154_200x200_q0f3.jpg",
        "end":"2020-12-20 10:00:00.000Z",
        "price": 26.5,
        "user_uuid":"72e43e4f-df19-4efb-bc56-36fe31ed1a94"
    }, {
		"cat_uuid": "595cc299bfb8a76b1387f828",
    	"product": "Set cadou Nivea Fresh Sensation",
    	"description":"Gel de dus + sampon micelar + Deodorant",
		"quantity":3000,
    	"photo_url":"https://s12emagst.akamaized.net/products/26369/26368784/images/res_b552ea8eecc96e6ec5c06d364980c133_200x200_u2tg.jpg",
    	"end":"2020-12-31 23:59:59.999Z",
        "price": 56,
        "user_uuid":"72e43e4f-df19-4efb-bc56-36fe31ed1a94"
    }, {
		"cat_uuid": "595cc299bfb8a76b1387f828",
    	"product": "Servetele demachiante",
    	"description":"Nivea Visage Cleansing Delicate, 25 buc",
		"quantity":500,
    	"photo_url":"https://s12emagst.akamaized.net/products/427/426808/images/res_01d354d800c76f0c3896b693e0b6b7a2_200x200_nfn0.jpg",
    	"end":"2020-12-20 12:00:00.000Z",
        "price": 12.99,
        "user_uuid":"72e43e4f-df19-4efb-bc56-36fe31ed1a94"
    }, {
		"cat_uuid": "595cc27cbfb8a76b1387f826",	
    	"product": "Asics, Pantofi sport unisex cu insertii de plasa",
    	"description":"pentru fitness Gel DS, Alb/verde, 5.5",
		"quantity":20,
    	"photo_url":"https://s12emagst.akamaized.net/products/19105/19104385/images/res_564e4f5b0161e52307577a1966d83c66_200x200_ir7p.jpg",
    	"end":"2020-12-31 12:00:00.000Z",
        "price": 159,
        "user_uuid":"72e43e4f-df19-4efb-bc56-36fe31ed1a94"
    }, {
		"cat_uuid": "595cc271bfb8a76b1387f825",
    	"product": "Cafea boabe Crema e Aroma",
    	"description":"1kg Lavazza",
		"quantity":260,
    	"photo_url":"https://s12emagst.akamaized.net/products/2192/2191058/images/res_d8e925839d5186c3f88c68630181dc08_200x200_7ocn.jpg",
    	"end":"2020-12-30 19:00:00.000Z",
        "price": 72,
        "user_uuid":"e384041d-00c3-48c8-92ea-fcdc24d5896e"
    }, {
		"cat_uuid": "595cc271bfb8a76b1387f825",
    	"product": "Cafea boabe Espresso",
    	"description":"1kg Lavazza Rossa",
		"quantity":56,
    	"photo_url":"https://s12emagst.akamaized.net/products/20993/20992372/images/res_516ae59c35c846e9b2e43b51c3279e78_200x200_e0ng.jpg",
    	"end":"2020-12-30 19:00:00.000Z",
        "price": 72,
        "user_uuid":"e384041d-00c3-48c8-92ea-fcdc24d5896e"
    }, {
		"cat_uuid": "595cc2a2bfb8a76b1387f829",
    	"product": "4 * Anvelope iarna",
    	"description":"Riken Snow 195/65/R15",
		"quantity":40,
    	"photo_url":"https://s12emagst.akamaized.net/products/17182/17181803/images/res_6dd9891c4e5756cf7747ce402faa1c5d_200x200_secp.jpg",
    	"end":"2020-01-31 15:00:00.000Z",
        "price": 879.96,
        "user_uuid":"3e3a27d4-37cd-425e-b936-8266eb532a91"
    }, {
		"cat_uuid": "595cc2a2bfb8a76b1387f829",
    	"product": "Anvelope iarna",
    	"description":"Michelin Alpin 5 195/65 R15",
		"quantity":80,
    	"photo_url":"https://s12emagst.akamaized.net/products/8753/8752956/images/res_485d144f04beb2170d4c1ae10a39e21b_200x200_aucn.jpg",
    	"end":"2020-01-31 15:00:00.000Z",
        "price": 279.90,
        "user_uuid":"3e3a27d4-37cd-425e-b936-8266eb532a91"
    }, {
		"cat_uuid": "595cc2a2bfb8a76b1387f829",
    	"product": "Janta aliaj",
    	"description":"GMP EASY-R 6.5j x 15 inch 4x100 ET35",
		"quantity":20,
    	"photo_url":"https://s12emagst.akamaized.net/products/24371/24370613/images/res_be9d67752c4176b18a95267edad3df65_200x200_2bgc.jpg",
    	"end":"2020-05-31 15:00:00.000Z",
        "price": 359.99,
        "user_uuid":"3e3a27d4-37cd-425e-b936-8266eb532a91"
    }, {
		"cat_uuid": "595cc27cbfb8a76b1387f826",
    	"product": "Nike, bluza Drifit",
    	"description":"pentru alergare Pacer",
		"quantity":120,
    	"photo_url":"https://s12emagst.akamaized.net/products/23510/23509942/images/res_6806d9f17d8379224a122f333054c1e5_200x200_95r4.jpg?v2",
    	"end":"2020-09-30 23:59:59.999Z",
        "price": 124.49,
        "user_uuid":"72e43e4f-df19-4efb-bc56-36fe31ed1a94"
    }, {
		"cat_uuid": "595cc27cbfb8a76b1387f826",
    	"product": "Bustiera Fitness Slim Fit",
    	"description":"remodelare corporala",
		"quantity":250,
    	"photo_url":"https://s12emagst.akamaized.net/products/16796/16795036/images/res_998149cbdde1cef222b113324b96534d_200x200_di2u.jpg",
    	"end":"2020-09-30 23:59:59.999Z",
        "price": 32.99,
        "user_uuid":"72e43e4f-df19-4efb-bc56-36fe31ed1a94"
    }, {
		"cat_uuid": "595cc27cbfb8a76b1387f826",
    	"product": "Bandana Wilson Headband",
    	"description":"negru",
		"quantity":130,
    	"photo_url":"https://s12emagst.akamaized.net/products/10689/10688376/images/res_81dd0e79ac2e4f83b83b1068f314d600_200x200_u88u.jpg",
    	"end":"2020-10-31 23:59:59.999Z",
        "price": 23.49,
        "user_uuid":"72e43e4f-df19-4efb-bc56-36fe31ed1a94"
    }, {
		"cat_uuid": "595cc27cbfb8a76b1387f826",
    	"product": "Sapca unisex Nike JORDAN",
    	"description":"PRO JM AIR HBR negru",
		"quantity":130,
    	"photo_url":"https://s12emagst.akamaized.net/products/24541/24540060/images/res_1a442ce07ee07fde030c7b01b01223b6_200x200_1utm.jpg?v2",
    	"end":"2020-10-31 23:59:59.999Z",
        "price": 110,
        "user_uuid":"72e43e4f-df19-4efb-bc56-36fe31ed1a94"
    }, {
		"cat_uuid": "595cc27cbfb8a76b1387f826",
    	"product": "Set bandane incheietura Wilson",
    	"description":"alb",
		"quantity":70,
    	"photo_url":"https://s12emagst.akamaized.net/products/10689/10688361/images/res_254cdce7dbe59b96c93994f95c63ba27_200x200_7sk8.jpg",
    	"end":"2020-10-31 23:59:59.999Z",
        "price": 20,
        "user_uuid":"72e43e4f-df19-4efb-bc56-36fe31ed1a94"
    }]
}